…
<a href="http://www.nhc.noaa.gov/data/#hurdat" target="_blank">http://www.nhc.noaa.gov/data/\#hurdat</a>

The data `storms` includes the positions and attributes of 198 tropical
storms, measured every six hours during the lifetime of a storm. When
you type the name of the data object, you whould get something like
this:

``` r
storms
```

    ## # A tibble: 10,010 x 13
    ##    name   year month   day  hour   lat  long status category  wind pressure
    ##    <chr> <dbl> <dbl> <int> <dbl> <dbl> <dbl> <chr>  <ord>    <int>    <int>
    ##  1 Amy    1975     6    27     0  27.5 -79   tropi… -1          25     1013
    ##  2 Amy    1975     6    27     6  28.5 -79   tropi… -1          25     1013
    ##  3 Amy    1975     6    27    12  29.5 -79   tropi… -1          25     1013
    ##  4 Amy    1975     6    27    18  30.5 -79   tropi… -1          25     1013
    ##  5 Amy    1975     6    28     0  31.5 -78.8 tropi… -1          25     1012
    ##  6 Amy    1975     6    28     6  32.4 -78.7 tropi… -1          25     1012
    ##  7 Amy    1975     6    28    12  33.3 -78   tropi… -1          25     1011
    ##  8 Amy    1975     6    28    18  34   -77   tropi… -1          30     1006
    ##  9 Amy    1975     6    29     0  34.4 -75.8 tropi… 0           35     1004
    ## 10 Amy    1975     6    29     6  34   -74.8 tropi… 0           40     1002
    ## # … with 10,000 more rows, and 2 more variables: ts_diameter <dbl>,
    ## #   hu_diameter <dbl>
…
    ##  [1] 1975 1976 1977 1978 1979 1980 1981 1982 1983 1984 1985 1986 1987 1988 1989
    ## [16] 1990 1991 1992 1993 1994 1995 1996 1997 1998 1999 2000 2001 2002 2003 2004
    ## [31] 2005 2006 2007 2008 2009 2010 2011 2012 2013 2014 2015

The same can be accomplished with `select()`. The difference with
`pull()` is in the way the output is handled by `select()`, which
returns output in a table format:

``` r
unique(select(storms, year))
```

    ## # A tibble: 41 x 1
    ##     year
    ##    <dbl>
    ##  1  1975
    ##  2  1976
    ##  3  1977
    ##  4  1978
    ##  5  1979
    ##  6  1980
    ##  7  1981
    ##  8  1982
    ##  9  1983
    ## 10  1984
    ## # … with 31 more rows
…
<img src="../images/eda/dplyr-filter.svg" title="Extracting a row with dplyr function &quot;filter&quot;" alt="Extracting a row with dplyr function &quot;filter&quot;" width="40%" />

First, let’s create a subset `storms75` by *filtering* those rows with
`year` equal to 1975:

``` r
storms75 <- filter(storms, year == 1975)
storms75
```

    ## # A tibble: 86 x 13
    ##    name   year month   day  hour   lat  long status category  wind pressure
    ##    <chr> <dbl> <dbl> <int> <dbl> <dbl> <dbl> <chr>  <ord>    <int>    <int>
    ##  1 Amy    1975     6    27     0  27.5 -79   tropi… -1          25     1013
    ##  2 Amy    1975     6    27     6  28.5 -79   tropi… -1          25     1013
    ##  3 Amy    1975     6    27    12  29.5 -79   tropi… -1          25     1013
    ##  4 Amy    1975     6    27    18  30.5 -79   tropi… -1          25     1013
    ##  5 Amy    1975     6    28     0  31.5 -78.8 tropi… -1          25     1012
    ##  6 Amy    1975     6    28     6  32.4 -78.7 tropi… -1          25     1012
    ##  7 Amy    1975     6    28    12  33.3 -78   tropi… -1          25     1011
    ##  8 Amy    1975     6    28    18  34   -77   tropi… -1          30     1006
    ##  9 Amy    1975     6    29     0  34.4 -75.8 tropi… 0           35     1004
    ## 10 Amy    1975     6    29     6  34   -74.8 tropi… 0           40     1002
    ## # … with 76 more rows, and 2 more variables: ts_diameter <dbl>,
    ## #   hu_diameter <dbl>
…
### Inspecting 1975 storm Amy

Let’s focus on a specific storm, for example storm `Amy` in 1975. For
sake of simplicity, we are going to create a table `amy75` containing
the values of this storm:

``` r
amy75 <- filter(storms75, name == "Amy")
amy75
```

    ## # A tibble: 30 x 13
    ##    name   year month   day  hour   lat  long status category  wind pressure
    ##    <chr> <dbl> <dbl> <int> <dbl> <dbl> <dbl> <chr>  <ord>    <int>    <int>
    ##  1 Amy    1975     6    27     0  27.5 -79   tropi… -1          25     1013
    ##  2 Amy    1975     6    27     6  28.5 -79   tropi… -1          25     1013
    ##  3 Amy    1975     6    27    12  29.5 -79   tropi… -1          25     1013
    ##  4 Amy    1975     6    27    18  30.5 -79   tropi… -1          25     1013
    ##  5 Amy    1975     6    28     0  31.5 -78.8 tropi… -1          25     1012
    ##  6 Amy    1975     6    28     6  32.4 -78.7 tropi… -1          25     1012
    ##  7 Amy    1975     6    28    12  33.3 -78   tropi… -1          25     1011
    ##  8 Amy    1975     6    28    18  34   -77   tropi… -1          30     1006
    ##  9 Amy    1975     6    29     0  34.4 -75.8 tropi… 0           35     1004
    ## 10 Amy    1975     6    29     6  34   -74.8 tropi… 0           40     1002
    ## # … with 20 more rows, and 2 more variables: ts_diameter <dbl>,
    ## #   hu_diameter <dbl>
…
