…
# ignore unnamed storms, and select hurricanes
named_storms <- dat %>% 
  filter(NAME != "NOT_NAMED")

hurrs_per_year <- named_storms %>%
  group_by(SEASON) %>%
  distinct(NAME) %>%
  count(SEASON, name = "count")

hurrs_per_year
```

    ## # A tibble: 40 x 2
    ## # Groups:   SEASON [40]
    ##    SEASON count
    ##     <int> <int>
    ##  1   1980    11
    ##  2   1981    11
    ##  3   1982     5
    ##  4   1983     4
    ##  5   1984    12
    ##  6   1985    11
    ##  7   1986     6
    ##  8   1987     6
    ##  9   1988    11
    ## 10   1989    11
    ## # … with 30 more rows
…
