Analyzing Hurricanes (part 2)
…
dplyr cheatsheet: https://github.com/rstudio/cheatsheets/raw/master/data-transformation.pdf

ggplot2 cheathseet: https://rstudio.com/wp-content/uploads/2016/11/ggplot2-cheatsheet-2.1.pdf

Atlantic Hurricane Data

The package "dplyr" contains a dataset called storms which is a subset of the NOAA Atlantic hurricane database best track data. This database is one of several data sets available in the National Hurricane Center (NHC) Data Archive, which is part of the National Oceanic and Atmospheric Administration (NOAA). In case you are curious about the specifications and format of this type of data, you can visit the following link:

http://www.nhc.noaa.gov/data/#hurdat

The data storms includes the positions and attributes of 198 tropical storms, measured every six hours during the lifetime of a storm. When you type the name of the data object, you whould get something like this:

storms

## # A tibble: 10,010 x 13
##    name   year month   day  hour   lat  long status category  wind pressure
##    <chr> <dbl> <dbl> <int> <dbl> <dbl> <dbl> <chr>  <ord>    <int>    <int>
##  1 Amy    1975     6    27     0  27.5 -79   tropi -1          25     1013
##  2 Amy    1975     6    27     6  28.5 -79   tropi -1          25     1013
##  3 Amy    1975     6    27    12  29.5 -79   tropi -1          25     1013
##  4 Amy    1975     6    27    18  30.5 -79   tropi -1          25     1013
##  5 Amy    1975     6    28     0  31.5 -78.8 tropi -1          25     1012
##  6 Amy    1975     6    28     6  32.4 -78.7 tropi -1          25     1012
##  7 Amy    1975     6    28    12  33.3 -78   tropi -1          25     1011
##  8 Amy    1975     6    28    18  34   -77   tropi -1          30     1006
##  9 Amy    1975     6    29     0  34.4 -75.8 tropi 0           35     1004
## 10 Amy    1975     6    29     6  34   -74.8 tropi 0           40     1002
## #  with 10,000 more rows, and 2 more variables: ts_diameter <dbl>,
## #   hu_diameter <dbl>
…
Take a look at the manual (or help) documentation and find the description of the variables in data storms

Exploratory Data Analysis

Exploring data is very similar to when you go to the doctor and they do an initial exploration (e.g.measuring your height, your weight, temperature, blood pressure; listenning to your heart and lungs; looking at your eyes, throat, ears; asking you questions about your eating habits, physical activity habits, etc).

To perform an exploratory analysis of data that is tabular format, we typically start by inspecting each variable (each column) at a time. To keep things relatively simple, we wont perform a full exploration of every single variable in the data. However, we encourage you to play with the functions to go beyond what we cover in this module. In real life, you will have to do such exploration.

Basic Inspection of year

When you type storms, R displays the first 10 rows, which belong to storm Amy in 1975:

storms

## # A tibble: 10,010 x 13
##    name   year month   day  hour   lat  long status category  wind pressure
##    <chr> <dbl> <dbl> <int> <dbl> <dbl> <dbl> <chr>  <ord>    <int>    <int>
##  1 Amy    1975     6    27     0  27.5 -79   tropi -1          25     1013
##  2 Amy    1975     6    27     6  28.5 -79   tropi -1          25     1013
##  3 Amy    1975     6    27    12  29.5 -79   tropi -1          25     1013
##  4 Amy    1975     6    27    18  30.5 -79   tropi -1          25     1013
##  5 Amy    1975     6    28     0  31.5 -78.8 tropi -1          25     1012
##  6 Amy    1975     6    28     6  32.4 -78.7 tropi -1          25     1012
##  7 Amy    1975     6    28    12  33.3 -78   tropi -1          25     1011
##  8 Amy    1975     6    28    18  34   -77   tropi -1          30     1006
##  9 Amy    1975     6    29     0  34.4 -75.8 tropi 0           35     1004
## 10 Amy    1975     6    29     6  34   -74.8 tropi 0           40     1002
## #  with 10,000 more rows, and 2 more variables: ts_diameter <dbl>,
## #   hu_diameter <dbl>
…
Extracting a column with dplyr functions pull and select

Lets do a sanity check of years. We can use the function pull() that pulls or extracts an entire column. Because there are 10010 elements in years, lets also use unique() to find out the set of year values in the data. First we pull the year, and then we identify unique occurrences:

unique(pull(storms, year))

##  [1] 1975 1976 1977 1978 1979 1980 1981 1982 1983 1984 1985 1986 1987 1988 1989
## [16] 1990 1991 1992 1993 1994 1995 1996 1997 1998 1999 2000 2001 2002 2003 2004
## [31] 2005 2006 2007 2008 2009 2010 2011 2012 2013 2014 2015

The same can be accomplished with select(). The difference with pull() is in the way the output is handled by select(), which returns output in a table format:

unique(select(storms, year))

## # A tibble: 41 x 1
##     year
##    <dbl>
##  1  1975
##  2  1976
##  3  1977
##  4  1978
##  5  1979
##  6  1980
##  7  1981
##  8  1982
##  9  1983
## 10  1984
## #  with 31 more rows
…
Extracting a row with dplyr function filter

First, lets create a subset storms75 by filtering those rows with year equal to 1975:

storms75 <- filter(storms, year == 1975)
storms75

## # A tibble: 86 x 13
##    name   year month   day  hour   lat  long status category  wind pressure
##    <chr> <dbl> <dbl> <int> <dbl> <dbl> <dbl> <chr>  <ord>    <int>    <int>
##  1 Amy    1975     6    27     0  27.5 -79   tropi -1          25     1013
##  2 Amy    1975     6    27     6  28.5 -79   tropi -1          25     1013
##  3 Amy    1975     6    27    12  29.5 -79   tropi -1          25     1013
##  4 Amy    1975     6    27    18  30.5 -79   tropi -1          25     1013
##  5 Amy    1975     6    28     0  31.5 -78.8 tropi -1          25     1012
##  6 Amy    1975     6    28     6  32.4 -78.7 tropi -1          25     1012
##  7 Amy    1975     6    28    12  33.3 -78   tropi -1          25     1011
##  8 Amy    1975     6    28    18  34   -77   tropi -1          30     1006
##  9 Amy    1975     6    29     0  34.4 -75.8 tropi 0           35     1004
## 10 Amy    1975     6    29     6  34   -74.8 tropi 0           40     1002
## #  with 76 more rows, and 2 more variables: ts_diameter <dbl>,
## #   hu_diameter <dbl>
…
## # A tibble: 3 x 2
##   name         n
##   <chr>    <int>
## 1 Amy         30
## 2 Caroline    33
## 3 Doris       23

Visual displays on 1975 storms

Lets play a bit with those storms from 1975. More specifically, lets visually explore the values of columns wind and pressure.

storms75

## # A tibble: 86 x 13
##    name   year month   day  hour   lat  long status category  wind pressure
##    <chr> <dbl> <dbl> <int> <dbl> <dbl> <dbl> <chr>  <ord>    <int>    <int>
##  1 Amy    1975     6    27     0  27.5 -79   tropi -1          25     1013
##  2 Amy    1975     6    27     6  28.5 -79   tropi -1          25     1013
##  3 Amy    1975     6    27    12  29.5 -79   tropi -1          25     1013
##  4 Amy    1975     6    27    18  30.5 -79   tropi -1          25     1013
##  5 Amy    1975     6    28     0  31.5 -78.8 tropi -1          25     1012
##  6 Amy    1975     6    28     6  32.4 -78.7 tropi -1          25     1012
##  7 Amy    1975     6    28    12  33.3 -78   tropi -1          25     1011
##  8 Amy    1975     6    28    18  34   -77   tropi -1          30     1006
##  9 Amy    1975     6    29     0  34.4 -75.8 tropi 0           35     1004
## 10 Amy    1975     6    29     6  34   -74.8 tropi 0           40     1002
## #  with 76 more rows, and 2 more variables: ts_diameter <dbl>,
## #   hu_diameter <dbl>
…
In this command we are faceting by name, and what this does is to create facets, one for each category of name. In other words, we get separated density curves, one for each storm. The syntax inside facet_wrap() uses the tilde ~ operator which is the formula operator in R. Basically, the command ~ name tells ggplot() to create facets based on the values of name.

Visual Inspection of Storm Amy (1975)

Lets focus on storm Amy in 1975, subsetting storms75 to filter out just the rows of Amy into its own table

amy75 <- filter(storms75, name == "Amy")
amy75

## # A tibble: 30 x 13
##    name   year month   day  hour   lat  long status category  wind pressure
##    <chr> <dbl> <dbl> <int> <dbl> <dbl> <dbl> <chr>  <ord>    <int>    <int>
##  1 Amy    1975     6    27     0  27.5 -79   tropi -1          25     1013
##  2 Amy    1975     6    27     6  28.5 -79   tropi -1          25     1013
##  3 Amy    1975     6    27    12  29.5 -79   tropi -1          25     1013
##  4 Amy    1975     6    27    18  30.5 -79   tropi -1          25     1013
##  5 Amy    1975     6    28     0  31.5 -78.8 tropi -1          25     1012
##  6 Amy    1975     6    28     6  32.4 -78.7 tropi -1          25     1012
##  7 Amy    1975     6    28    12  33.3 -78   tropi -1          25     1011
##  8 Amy    1975     6    28    18  34   -77   tropi -1          30     1006
##  9 Amy    1975     6    29     0  34.4 -75.8 tropi 0           35     1004
## 10 Amy    1975     6    29     6  34   -74.8 tropi 0           40     1002
## #  with 20 more rows, and 2 more variables: ts_diameter <dbl>,
## #   hu_diameter <dbl>
…
