Analyzing Hurricanes (part 3)
…
Reminder

You may need to load packages "dplyr" and "ggplot2" with the library() function (load them one-by-one:

# (you should include this command in your source file)
library(dplyr)
library(ggplot2)

Weve been working with the table storms75, which was obtained by filtering those rows with year equal to 1975:

storms75 <- filter(storms, year == 1975)
storms75

## # A tibble: 86 x 13
##    name   year month   day  hour   lat  long status category  wind pressure
##    <chr> <dbl> <dbl> <int> <dbl> <dbl> <dbl> <chr>  <ord>    <int>    <int>
##  1 Amy    1975     6    27     0  27.5 -79   tropi -1          25     1013
##  2 Amy    1975     6    27     6  28.5 -79   tropi -1          25     1013
##  3 Amy    1975     6    27    12  29.5 -79   tropi -1          25     1013
##  4 Amy    1975     6    27    18  30.5 -79   tropi -1          25     1013
##  5 Amy    1975     6    28     0  31.5 -78.8 tropi -1          25     1012
##  6 Amy    1975     6    28     6  32.4 -78.7 tropi -1          25     1012
##  7 Amy    1975     6    28    12  33.3 -78   tropi -1          25     1011
##  8 Amy    1975     6    28    18  34   -77   tropi -1          30     1006
##  9 Amy    1975     6    29     0  34.4 -75.8 tropi 0           35     1004
## 10 Amy    1975     6    29     6  34   -74.8 tropi 0           40     1002
## #  with 76 more rows, and 2 more variables: ts_diameter <dbl>,
## #   hu_diameter <dbl>
…
## # A tibble: 3 x 3
##   name     avg_wind avg_pressure
##   <chr>       <dbl>        <dbl>
## 1 Doris        73.7         983.
## 2 Amy          46.5         995.
## 3 Caroline     38.9        1002.

Further inspection of 1975 storm Amy

Lets focus on a specific storm, for example storm Amy in 1975. For sake of simplicity, we are going to create a table amy75 containing the values of this storm:

amy75 <- filter(storms75, name == "Amy")
amy75

## # A tibble: 30 x 13
##    name   year month   day  hour   lat  long status category  wind pressure
##    <chr> <dbl> <dbl> <int> <dbl> <dbl> <dbl> <chr>  <ord>    <int>    <int>
##  1 Amy    1975     6    27     0  27.5 -79   tropi -1          25     1013
##  2 Amy    1975     6    27     6  28.5 -79   tropi -1          25     1013
##  3 Amy    1975     6    27    12  29.5 -79   tropi -1          25     1013
##  4 Amy    1975     6    27    18  30.5 -79   tropi -1          25     1013
##  5 Amy    1975     6    28     0  31.5 -78.8 tropi -1          25     1012
##  6 Amy    1975     6    28     6  32.4 -78.7 tropi -1          25     1012
##  7 Amy    1975     6    28    12  33.3 -78   tropi -1          25     1011
##  8 Amy    1975     6    28    18  34   -77   tropi -1          30     1006
##  9 Amy    1975     6    29     0  34.4 -75.8 tropi 0           35     1004
## 10 Amy    1975     6    29     6  34   -74.8 tropi 0           40     1002
## #  with 20 more rows, and 2 more variables: ts_diameter <dbl>,
## #   hu_diameter <dbl>
…
We discovered the 41-year period of recorded data from 1975 to 2015. We can take a further step and ask: how many storms are there in each year?

To answer this question, we need to do some data manipulation with "dplyr". Our general recommendation when working with "dplyr"s functions, especially when you are learning about them, is to do computations step by step, deciding which columns you need to use, which rows to consider, which functions to call, and so on.

Think about the columns that we need to select to find the number of unique storms per year. We obviously need year, but this column alone its not enough because for any given storm we have multiple records with the same year. Therefore, we also need column name.

For illustration purposes, we are going to build the data manipulation pipeline step by step. As you get more comfortable with "dplyr" and other functions, you wont have the need to disect every single command. A first step is to select() variables year and name:

select(storms, year, name)

## # A tibble: 10,010 x 2
##     year name 
##    <dbl> <chr>
##  1  1975 Amy  
##  2  1975 Amy  
##  3  1975 Amy  
##  4  1975 Amy  
##  5  1975 Amy  
##  6  1975 Amy  
##  7  1975 Amy  
##  8  1975 Amy  
##  9  1975 Amy  
## 10  1975 Amy  
## #  with 10,000 more rows

Next, we need to group_by() year. At first glance, the previous output and the output below seem identical. But notice the tiny difference: the output below has a second line of text with some relevant information: # Groups:   year [41], telling us that the values are grouped by year.

group_by(select(storms, year, name), year)

## # A tibble: 10,010 x 2
## # Groups:   year [41]
##     year name 
##    <dbl> <chr>
##  1  1975 Amy  
##  2  1975 Amy  
##  3  1975 Amy  
##  4  1975 Amy  
##  5  1975 Amy  
##  6  1975 Amy  
##  7  1975 Amy  
##  8  1975 Amy  
##  9  1975 Amy  
## 10  1975 Amy  
## #  with 10,000 more rows

Then, we identify the distinct() values (combination of year-name):

distinct(group_by(select(storms, year, name), year))

## # A tibble: 426 x 2
## # Groups:   year [41]
##     year name    
##    <dbl> <chr>   
##  1  1975 Amy     
##  2  1975 Caroline
##  3  1975 Doris   
##  4  1976 Belle   
##  5  1976 Gloria  
##  6  1977 Anita   
##  7  1977 Clara   
##  8  1977 Evelyn  
##  9  1978 Amelia  
## 10  1978 Bess    
## #  with 416 more rows

For convenience purposes, lets assign this table into its own object, which we can call storms_year_name

storms_year_name <- distinct(group_by(select(storms, year, name), year))

Finally, we need to count() how many storms are in each year:

count(storms_year_name, year)

## # A tibble: 41 x 2
## # Groups:   year [41]
##     year     n
##    <dbl> <int>
##  1  1975     3
##  2  1976     2
##  3  1977     3
##  4  1978     4
##  5  1979     7
##  6  1980     8
##  7  1981     5
##  8  1982     5
##  9  1983     4
## 10  1984    10
## #  with 31 more rows

All the previous commands can be assembled together with various embedded lines of code:

storms_per_year <- count(
  distinct(
    group_by(
      select(storms, year, name), 
      year)
    )
  )

storms_per_year

## # A tibble: 41 x 2
## # Groups:   year [41]
##     year     n
##    <dbl> <int>
##  1  1975     3
##  2  1976     2
##  3  1977     3
##  4  1978     4
##  5  1979     7
##  6  1980     8
##  7  1981     5
##  8  1982     5
##  9  1983     4
## 10  1984    10
## #  with 31 more rows
…
By looking at the chart, there are some fairly tall bars. Although its hard to see exactly which years have a considerably large number of storms, eyeballing things out it seems that around 1995, 2003, 2005, and 2010 there are 20 or more storms. We can find the actual answer by using arrange(), specifying the counts to be shown in descending orderwith desc():

arrange(storms_per_year, desc(n))

## # A tibble: 41 x 2
## # Groups:   year [41]
##     year     n
##    <dbl> <int>
##  1  1995    21
##  2  2005    21
##  3  2003    20
##  4  2010    20
##  5  2001    17
##  6  2012    17
##  7  2000    16
##  8  2007    16
##  9  2011    15
## 10  2008    14
## #  with 31 more rows
…
